rtl/LFSR/simulation/qsim/LFSR.msim.vcd
$comment
	File created using the following command:
		vcd file LFSR.msim.vcd -direction
$end
$date
	Tue Jun 18 11:26:58 2024
$end
$version
	ModelSim Version 10.5b
$end
$timescale
	1ps
$end

$scope module LFSR_vlg_vec_tst $end
$var reg 1 ! clk $end
$var reg 1 " reset $end
$var wire 1 # current_value [4] $end
$var wire 1 $ current_value [3] $end
$var wire 1 % current_value [2] $end
$var wire 1 & current_value [1] $end
$var wire 1 ' current_value [0] $end

$scope module i1 $end
$var wire 1 ( gnd $end
$var wire 1 ) vcc $end
$var wire 1 * unknown $end
$var tri1 1 + devclrn $end
$var tri1 1 , devpor $end
$var tri1 1 - devoe $end
$var wire 1 . current_value[0]~output_o $end
$var wire 1 / current_value[1]~output_o $end
$var wire 1 0 current_value[2]~output_o $end
$var wire 1 1 current_value[3]~output_o $end
$var wire 1 2 current_value[4]~output_o $end
$var wire 1 3 clk~input_o $end
$var wire 1 4 reset~input_o $end
$var wire 1 5 current_value~4_combout $end
$var wire 1 6 current_value[4]~reg0_q $end
$var wire 1 7 current_value~3_combout $end
$var wire 1 8 current_value[3]~reg0_q $end
$var wire 1 9 current_value~2_combout $end
$var wire 1 : current_value[2]~reg0_q $end
$var wire 1 ; current_value~1_combout $end
$var wire 1 < current_value[1]~reg0_q $end
$var wire 1 = current_value~0_combout $end
$var wire 1 > current_value[0]~reg0_q $end
$upscope $end
$upscope $end
$enddefinitions $end
#0
$dumpvars
0!
0"
0'
0&
0%
0$
0#
0(
1)
x*
1+
1,
1-
0.
0/
00
01
02
03
04
15
06
17
08
19
0:
1;
0<
1=
0>
$end
#5000
1!
13
1>
1<
1:
18
16
12
11
10
1/
1.
1'
1&
1%
1$
1#
05
#10000
0!
03
#15000
1!
13
06
02
0#
07
#20000
0!
03
#25000
1!
13
08
01
0$
09
#30000
0!
03
#35000
1!
13
0:
00
0%
0;
15
#40000
0!
03
#45000
1!
13
0<
16
12
0/
0&
1#
0=
17
#50000
0!
03
#55000
1!
13
0>
18
11
0.
0'
1$
19
05
#60000
0!
03
#65000
1!
13
1:
06
02
10
1%
0#
1;
07
15
#70000
0!
03
#75000
1!
13
1<
08
16
12
01
1/
1&
0$
1#
1=
09
17
#80000
0!
03
#85000
1!
13
1>
0:
18
11
00
1.
1'
0%
1$
0;
19
#90000
0!
03
#95000
1!
13
0<
1:
10
0/
0&
1%
0=
1;
05
#100000
0!
03
#105000
1!
13
0>
1<
06
02
1/
0.
0'
1&
0#
1=
07
15
#110000
0!
03
#115000
1!
13
1>
08
16
12
01
1.
1'
0$
1#
09
17
05
#120000
0!
03
#125000
1!
13
0:
18
06
02
11
00
0%
1$
0#
0;
19
07
15
#130000
0!
03
#135000
1!
13
0<
1:
08
16
12
01
10
0/
0&
1%
0$
1#
0=
1;
09
17
05
#140000
0!
03
#145000
1!
13
0>
1<
0:
18
06
02
11
00
1/
0.
0'
1&
0%
1$
0#
1=
0;
19
07
#150000
0!
03
#155000
1!
13
1>
0<
1:
08
01
10
0/
1.
1'
0&
1%
0$
0=
1;
09
#160000
0!
03
#165000
1!
13
0>
1<
0:
00
1/
0.
0'
1&
0%
1=
0;
#170000
0!
03
#175000
1!
13
1>
0<
0/
1.
1'
0&
0=
15
#180000
0!
03
#185000
1!
13
0>
16
12
0.
0'
1#
17
05
#190000
0!
03
#195000
1!
13
18
06
02
11
1$
0#
19
07
#200000
0!
03
#205000
1!
13
1:
08
01
10
1%
0$
1;
09
15
#210000
0!
03
#215000
1!
13
1<
0:
16
12
00
1/
1&
0%
1#
1=
0;
17
05
#220000
0!
03
#225000
1!
13
1>
0<
18
06
02
11
0/
1.
1'
0&
1$
0#
0=
19
07
15
#230000
0!
03
#235000
1!
13
0>
1:
08
16
12
01
10
0.
0'
1%
0$
1#
1;
09
17
#240000
0!
03
#245000
1!
13
1<
0:
18
11
00
1/
1&
0%
1$
1=
0;
19
05
#250000
0!
03
#255000
1!
13
1>
0<
1:
06
02
10
0/
1.
1'
0&
1%
0#
0=
1;
07
#260000
0!
03
#265000
1!
13
0>
1<
08
01
1/
0.
0'
1&
0$
1=
09
15
#270000
0!
03
#275000
1!
13
1>
0:
16
12
00
1.
1'
0%
1#
0;
17
#280000
0!
03
#285000
1!
13
0<
18
11
0/
0&
1$
0=
19
#290000
0!
03
#295000
1!
13
0>
1:
10
0.
0'
1%
1;
#300000
0!
03
#305000
1!
13
1<
1/
1&
1=
#310000
0!
03
#315000
1!
13
1>
1.
1'
05
#320000
0!
03
#325000
1!
13
06
02
0#
07
#330000
0!
03
#335000
1!
13
08
01
0$
09
#340000
0!
03
#345000
1!
13
0:
00
0%
0;
15
#350000
0!
03
#355000
1!
13
0<
16
12
0/
0&
1#
0=
17
#360000
1"
0!
14
03
1=
1;
19
#365000
1!
13
1<
1:
18
11
10
1/
1&
1%
1$
#370000
0"
0!
04
03
05
#375000
1!
13
06
02
0#
07
#380000
0!
03
#385000
1!
13
08
01
0$
09
#390000
0!
03
#395000
1!
13
0:
00
0%
0;
15
